second week: Introduction to R and Rstudio
…
.                       .         .

mobile %>% 
  mutate(density = weight * 1000 / (dim_breadth * dim_length * dim_thickness)) -> mobile_dens
floats = mobile_dens[which(mobile_dens$density <= 1), ]
print(floats)

## # A tibble: 1,014 x 37
##    company device price  year announced           dim_length dim_breadth
##    <chr>   <chr>  <int> <int> <chr>                    <dbl>       <dbl>
##  1 alcatel 2040      30  2014 2014                     123          51.5
##  2 alcatel OT-308    30  2012 2012, February           109          46.0
##  3 alcatel OT-292    NA  2012 2012, February            94.0        45.0
##  4 alcatel OT-228    20  2012 2012, January            106          46.0
##  5 alcatel OT-665    NA  2011 2011, February            96.0        48.0
##  6 alcatel OT-361    NA  2011 2011, February            91.0        44.8
##  7 alcatel OT-223    NA  2010 2010. Released 2010       90.0        44.5
##  8 alcatel OT-217    30  2011 2011, August             106          46.0
##  9 alcatel OT-213    NA  2011 2011, February           108          46.0
## 10 alcatel OT-209    NA  2011 2011, February           108          46.0
## # ... with 1,004 more rows, and 30 more variables: dim_thickness <dbl>,
## #   weight <dbl>, display_tech <chr>, display_size <dbl>, px_row <int>,
## #   px_col <int>, aspect_row <int>, aspect_col <int>, camera <chr>,
## #   video <chr>, cam_px <dbl>, selfie <chr>, sel_px <dbl>, sim_no <int>,
## #   os <chr>, os_type <chr>, card_slot <chr>, chipset <chr>, cpu <chr>,
## #   gpu <chr>, ram <dbl>, LTE <chr>, gps <chr>, radio <chr>, nfc <chr>,
## #   wlan <chr>, audio_jack <chr>, battery_mah <int>, bt_v <dbl>,
## #   density <dbl>
…
